\relax 
\catcode `"\active 
\babel@aux{swedish}{}
\@writefile{toc}{\contentsline {section}{\numberline {1}Inledning}{1}}
\@writefile{toc}{\contentsline {section}{\numberline {2}Konstruktion}{1}}
\@writefile{toc}{\contentsline {subsection}{\numberline {2.1}Uppbyggnad}{1}}
\@writefile{toc}{\contentsline {subsection}{\numberline {2.2}H\IeC {\r a}rdvarukonfiguration}{1}}
\@writefile{toc}{\contentsline {subsection}{\numberline {2.3}Programmering}{1}}
